{
  "realm": "dppapp_sso",
  "auth-server-url": "http://localhost:8080/auth/",
  "ssl-required": "external",
  "resource": "sso",
  "public-client": true,
  "verify-token-audience": true,
  "use-resource-role-mappings": true,
  "confidential-port": 0
}